epsilonMu,epsilonNu,T,# faulty nodes
0.032700073046569016,0.021793321998772652,26.0,0
0.032700073046569016,0.020599665204603965,26.0,1
0.032700073046569016,0.01962044054612017,26.0,2
0.03269550234835177,0.026382921670866415,24.4,3
0.03263816253896552,0.027485328273752392,24.1,4
0.03121921003792763,0.02654307767679568,24.1,5
0.02982934140927885,0.026785318562548073,24.1,6
0.02982934140927885,0.026363588506559142,24.3,7
0.02982934140927885,0.02339001055973055,24.2,8
0.02982934140927885,0.02600529856348941,24.4,9
0.02982934140927885,0.025225541853511696,24.4,10
0.02982934140927885,0.026498331610276836,24.2,11
0.02982934140927885,0.028610571895534724,21.0,12
0.02982934140927885,0.02690393011251104,21.0,13
0.019755081413380005,0.01983473405902023,21.0,14
0.019755081413380005,0.01843050702680408,21.0,15
0.019755081413380005,0.017264626565611087,21.4,16
0.019755081413380005,0.016295706679064357,22.4,17
0.019755081413380005,0.014564536784100052,21.7,18
0.012249350573043657,0.008932008298458154,21.5,19
0.012249350573043657,0.008136742434771818,22.3,20
0.012249350573043657,0.009877046041507758,21.1,21
0.012249350573043657,0.01273968647613669,21.5,22
0.012249350573043657,0.014481570004683999,22.4,23
0.012249350573043657,0.012530793622043294,22.3,24
0.012249350573043657,0.011660767426054508,21.9,25
0.012249350573043657,0.01226122979052534,24.1,26
0.012249350573043657,0.01521111665070482,23.5,27
0.012249350573043657,0.011373177462300906,23.2,28
0.019324138838794785,0.018569917219902275,25.8,29
0.022644743018658115,0.02310666799983565,23.8,30
0.04259936293867936,0.04224278465031283,24.8,31
0.0419184397536428,0.0439519405311769,22.5,32
0.042255328735836276,0.04487642037869873,22.1,33
0.04230657343918796,0.04860378762758248,24.8,34
0.04147415923253505,0.04804535884301697,23.1,35
0.042167958195114964,0.051587884153726705,34.4,36
0.04268673347940067,0.05410805438218393,24.0,37
0.04131859051898169,0.0538560526661994,25.1,38
0.06143338828661342,0.07397149787557086,24.6,39
0.06357574028116252,0.07458151260605526,27.9,40
0.06357574028116252,0.07783842550078113,24.5,41
0.06504977976081058,0.07746099459140358,23.8,42
0.06463608646278138,0.07955001900412939,25.5,43
0.06434589188836996,0.07980128117770581,26.3,44
0.06504977976081058,0.08220003408662949,24.9,45
0.06434589188836996,0.08353647871394435,23.0,46
0.0656869830049909,0.08485322485440122,26.1,47
